{
  "MY_OVERLAYS": "Mis superposiciones",
  "PUBLIC_OVERLAY_TEMPLATES": "Plantillas de superposición pública",
  "SEARCH_TEMPLATES": "Buscar por nombre o creado por",
  "EMPTY_LIST": "Nada encontrado",
  "CREATE_NEW_OVERLAY": "Crear nueva superposición",
  "VIEW": "Ver",
  "EDIT": "Editar",
  "DELETE": "Borrar",
  "SELECT_LANGUAGE": "Seleccione el idioma",
  "table.TITLE": "Título",
  "table.ARTIST": "Artista",
  "table.REQUESTED_BY": "Solicitada por",
  "table.AMOUNT": "Cantidad"
}
