{
  "MY_OVERLAYS": "Мои оверлеи",
  "PUBLIC_OVERLAY_TEMPLATES": "Общедоступные шаблоны наложения",
  "SEARCH_TEMPLATES": "Поиск по имени или создан",
  "EMPTY_LIST": "Не найдено",
  "CREATE_NEW_OVERLAY": "Создать новый оверлей",
  "VIEW": "Посмотреть",
  "EDIT": "Изменить",
  "DELETE": "Удалить",
  "SELECT_LANGUAGE": "Выберите язык",
  "table.TITLE": "Заголовок",
  "table.ARTIST": "Исполнитель",
  "table.REQUESTED_BY": "Заказано",
  "table.AMOUNT": "Сумма"
}
