{
  "app.NEED_HELP": "Potřebovat pomoc? Podívejte se na naše",
  "attributes.ACTIVE_QUESTION": "Aktivní?",
  "attributes.ATTRIBUTE": "Atribut",
  "attributes.NO_ATTRIBUTES_WARNING": "Zatím jste nenastavili atributy",
  "attributes.NONE_FOUND": "Nebyly nalezeny žádné atributy.",
  "attributes.SHOW_IN_TABLE": "Zobrazit v řádcích seznamu skladeb?",
  "commands.COOLDOWN": "Cooldown",
  "commands.CREATE_NEW": "Vytvořit nový příkaz?",
  "commands.CUSTOM": "Zvyk",
  "commands.GENERAL": "Všeobecné",
  "commands.NONE_FOUND": "Nebyly nalezeny žádné příkazy.",
  "history.NONE_FOUND_SINGLE": "Tato píseň nebyla přehrána.",
  "history.NONE_FOUND": "Nebyly nalezeny žádné přehrávané skladby.",
  "login.PROVIDER_INTRO": "V současné době se můžete přihlásit pomocí následujících poskytovatelů:",
  "nav.PREFERENCES": "Preference",
  "nav.SIGN_IN": "Přihlásit se",
  "nav.SIGN_OUT": "Odhlásit se",
  "nav.VIEW_PAGE": "Zobrazit moji stránku",
  "profile.SETTINGS_LINK": "Nastavení mého návazce",
  "queue.AVAILABLE_SLOTS": "Dostupné sloty",
  "queue.link.WARNING_INFO": "Následující adresa URL vás odvádí z tohoto webu.",
  "queue.link.WARNING": "Varování",
  "queue.NONE_FOUND": "Nebyly nalezeny žádné písně ve frontě.",
  "queue.NUM_IN_QUEUE": "Počet ve frontě",
  "queue.OVER_LIMIT": "Přes limit",
  "queue.PLAYED": "Hrál",
  "queue.table.AMOUNT": "Množství",
  "queue.table.PLAYED": "Nastavit skladbu jako přehrávanou",
  "queue.table.POSITION": "Pozice",
  "queue.table.REMOVE": "Odebrat z fronty",
  "queue.table.REQUESTED_BY": "Vyžádáno",
  "queue.toolbar.ADD": "Přidejte skladbu do fronty",
  "queue.toolbar.EDIT": "Upravit skladbu ve frontě",
  "queue.toolbar.OFFLINE": "Přesunout skladbu do fronty offline",
  "queue.toolbar.TOP": "Přesuňte píseň nahoru",
  "saved-queue.NONE_FOUND": "Nebyly nalezeny žádné uložené skladby ve frontě.",
  "SELECT_LANGUAGE": "Zvolte jazyk",
  "settings.BOT_CONNECTED": "Bot Připojeno k chatu",
  "settings.command-message.commandBlocked": "SonglistBot nemůže odeslat odpověď na zadaný příkaz",
  "settings.command-message.emptyQueue": "Fronta je prázdná a příkaz předpokládal, že ve frontě byla alespoň jedna skladba",
  "settings.command-message.firstSong": "Zadaná skladba je již ve frontě číslo 1",
  "settings.command-message.followerOnly": "Je zapnut režim pouze pro sledování a uživatel je nesleduje",
  "settings.command-message.maxRequests": "Když fronta dosáhne limitu písní, které chcete přidat",
  "settings.command-message.maxRequestsPerUser": "Uživatel dosáhl maximálního počtu požadavků",
  "settings.command-message.neverPlayed": "Zadaná skladba ještě nikdy nebyla přehrána",
  "settings.command-message.noDuplicate": "Požadovaná skladba je již ve frontě a možnost povolit duplikáty je vypnutá",
  "settings.command-message.noEvents": "Nebyly nalezeny žádné události",
  "settings.command-message.noSongs": "Seznam skladeb nemá žádné aktivní skladby",
  "settings.command-message.noSongsInQueueUser": "Uživatel nemá ve frontě nebo offline frontě žádné skladby",
  "settings.command-message.notPlayedToday": "Když příkaz předpokládá, že se dnes hrály písničky",
  "settings.command-message.onlySong": "Když příkaz předpokládá, že je ve frontě více než jedna skladba",
  "settings.command-message.recentlyPlayed": "Požadovaná skladba se přehrála v době určené volbou „minuty mezi požadavky“",
  "settings.command-message.requestsNotActive": "Žádosti jsou aktuálně vypnuty",
  "settings.command-message.songNextPlay": "Označí uživatele, jehož skladba je další ve frontě k přehrání",
  "settings.command-message.songNotFoundQueue": "Zadaná skladba nebyla ve frontě nalezena",
  "settings.command-message.songNotFoundSonglist": "Zadaná skladba nebyla v seznamu skladeb nalezena",
  "settings.command-message.subsOnly": "Sub-only režim je zapnut a uživatel není přihlášen",
  "settings.command.BOT_MESSAGES": "Bot Zprávy",
  "settings.command.EDIT_BOT": "Upravit Bot zprávu",
  "settings.command.EDIT": "Upravit příkaz",
  "settings.command.ENABLED_Q": "Povoleno?",
  "settings.command.MESSAGE_SENT": "Zpráva odeslána",
  "settings.command.MOD_ONLY_Q": "Pouze mod?",
  "settings.command.NEW": "Nový příkaz",
  "settings.CONNECT": "Připojit",
  "settings.CUSTOM_REQUEST_DIALOG": "Text, který se má zobrazit v dialogu žádosti o píseň",
  "settings.DISCONNECT": "Odpojit",
  "settings.DONATION_PAGE_URL": "URL dárcovské stránky",
  "settings.import.DUPLICATE": "Alespoň jeden řádek je duplikován",
  "settings.import.FILE_ERROR_MSG": "Nebyly možné načíst žádné skladby, ověřte, zda je váš soubor správně naformátován a zkuste to znovu.",
  "settings.import.MISSING_COLUMN": "Chybí sloupec",
  "settings.import.ONE_ROW_MISSING_COLUMN": "Alespoň v jednom řádku chybí sloupec",
  "settings.import.REVIEW_SONGS": "Zkontrolujte písně",
  "settings.import.SELECT_FILE": "Vyberte soubor",
  "settings.import.UPLOAD_ERROR_MSG": "Při nahrávání těchto skladeb došlo k chybě. Ověřte, zda neexistují duplikáty.",
  "settings.import.UPLOAD_INFO": "Následující skladby budou nahrány na místo, kde budou provedeny závěrečné kontroly",
  "settings.import.UPLOAD": "nahrát",
  "settings.NUM_NEW_DAYS_INFO": "Počet dní, kdy se nedávno vytvořené skladby zobrazují jako „Nové“",
  "settings.NUM_NEW_DAYS": "Počet &quot;nových&quot; dnů",
  "settings.OPEN_TO_SEE": "Otevřeno pro zobrazení",
  "settings.queue.CONCURRENT_REQ_LIMIT": "Limity souběžných požadavků na píseň (pouze ve frontě)",
  "settings.queue.INSERT_METHOD": "Metoda vložení do fronty",
  "settings.queue.MAX_REQ_PER_SESSION_INFO": "Nastavení na 0 zakáže čítač nad frontou",
  "settings.queue.MAX_REQ_PER_SESSION": "Max. Počet žádostí na relaci",
  "settings.queue.MIN_REQ_AMOUNT": "Minimální částka požadavku",
  "settings.queue.REQ_LIMITED_TO": "Žádosti omezené na",
  "settings.queue.REQUEST_STATUS": "Stav požadavku",
  "settings.queue.SESSION_LENGTH_INFO": "Nastavte na maximální délku vašeho proudu; pracuje s čítačem nad frontou",
  "settings.queue.SESSION_LENGTH": "Délka návštěvy",
  "settings.queue.TOTAL_REQ_LIMITS": "Celkový počet žádostí o píseň",
  "settings.REQUEST_TEXT": "Žádost o text",
  "settings.RESET": "Resetovat",
  "settings.SHOW_DONATION_LINK_INFO": "Zobrazit odkaz na dar v dialogu žádosti o píseň",
  "settings.SHOW_DONATION_LINK": "Zobrazit odkaz na darování",
  "settings.THEME": "Téma",
  "settings.URL_EXAMPLE": "např. streamelements.com/tip/my-stream-name",
  "shared.ADD": "Přidat",
  "shared.ALL": "Všechno",
  "shared.ARTIST": "Umělec",
  "shared.BACK": "Zadní",
  "shared.BY": "podle",
  "shared.CANCEL": "zrušení",
  "shared.CONTINUE": "Pokračovat",
  "shared.DAY_SHORT": "1d",
  "shared.DAY": "Den",
  "shared.DELETE": "Odstranit",
  "shared.DISABLED": "Zakázáno",
  "shared.EDIT": "Upravit",
  "shared.ENABLED": "Povoleno",
  "shared.FOLLOWER": "Následovník",
  "shared.HOURS": "hodin",
  "shared.MONTH_SHORT": "30d",
  "shared.MONTH": "Měsíc",
  "shared.NO": "Ne",
  "shared.NONE_FOUND": "Nebyly nalezeny žádné",
  "shared.NONE": "Žádný",
  "shared.NOTE": "Note",
  "shared.OF": "z",
  "shared.PREVIEW": "Náhled",
  "shared.SAVE": "Uložit",
  "shared.STREAM_SHORT": "&lt;1d",
  "shared.STREAM": "Proud",
  "shared.STREAMER": "Stuha",
  "shared.SUB": "Sub",
  "shared.TIER_1": "Úroveň 1",
  "shared.TIER_2": "Úroveň 2",
  "shared.TIER_3": "Úroveň 3",
  "shared.TITLE": "Titul",
  "shared.USER": "Uživatel",
  "shared.WEEK_SHORT": "7d",
  "shared.WEEK": "Týden",
  "shared.YES": "Ano",
  "songs.ADD_NEW": "Přidejte novou píseň",
  "songs.ADD_ONE": "Klepnutím sem přidáte jeden",
  "songs.CHORDS": "Akordy",
  "songs.CREATE_ANOTHER": "Vytvořit a přidat další",
  "songs.CREATE": "Vytvořit",
  "songs.EDIT_SONGS": "Úpravy písní",
  "songs.IN_QUEUE": "(v řadě)",
  "songs.LAST_PLAYED": "Naposledy hrané",
  "songs.LYRICS": "Text",
  "songs.multi-edit.FORCE_UPDATE": "Vynutit aktualizaci?",
  "songs.multi-edit.WARNING": "Poznámka: Pokud má nějaké pole vstup nebo pokud jsou vybrány atributy, přepíše tato pole pro každou skladbu. Je-li přepnuta možnost „Vynutit aktualizaci“, budou všechna pole, bez ohledu na to, že mají vstup, přepsána.",
  "songs.NEVER_PLAYED": "Nikdy",
  "songs.NOT_FOUND": "Nebyly nalezeny žádné skladby.",
  "songs.REQUEST_SHORT": "Req",
  "songs.request.FOLLOW_ONLY": "Žádosti jsou nastaveny pouze pro následovníky",
  "songs.request.INFO": "Zkopírujte následující a vložte jej na stránku s darem nebo ji vložte do chatu pomocí bitů",
  "songs.request.LOGGED_IN_ONLY": "Žádosti o píseň jsou aktuálně nastaveny pouze pro přihlášené uživatele",
  "songs.request.PRIORITY_INFO": "Klikněte na tlačítko požadavku. Chcete-li obdržet žádost o prioritu, zkopírujte následující a vložte ji na stránku s darem nebo ji zahrňte do své nálady",
  "songs.request.REQUEST": "Žádost o píseň",
  "songs.request.SUB_ONLY": "Žádosti jsou stanoveny pouze pro předplatitele",
  "songs.REQUEST": "Žádost",
  "songs.RETURN_FIRST": "Návrat na první stránku",
  "songs.SEARCH": "Vyhledávání",
  "songs.SHOW_INACTIVE": "Show Inactive",
  "songs.SONG": "Píseň",
  "songs.TABS": "Tab",
  "songs.TIMES_PLAYED": "Časy hrály",
  "streamer.nav_EDIT": "Upravit",
  "streamer.nav.ATTRIBUTES": "Atributy písně",
  "streamer.nav.BASIC": "Základní",
  "streamer.nav.BOT_COMMANDS": "Příkazy Bot",
  "streamer.nav.INTEGRATIONS": "Integrace",
  "streamer.nav.EDIT_MODE": "Mód úprav",
  "streamer.nav.EDIT_SONG": "Upravit skladbu",
  "streamer.nav.HISTORY": "Dějiny",
  "streamer.nav.OVERLAYS": "Překryvné vrstvy",
  "streamer.nav.QUEUE": "Fronta",
  "streamer.nav.SAVED_QUEUE": "Uložená fronta",
  "streamer.nav.SETTINGS": "Nastavení",
  "streamer.nav.SONG_IMPORT": "Import písně",
  "streamer.nav.SONGS": "Písně",
  "streamer.nav.SUB_PAGE": "Podstránka",
  "subpage.NEED_SUB": "Chcete-li zobrazit tuto stránku, musíte být přihlášeni k odběru kanálu {{streamerName}}.",
  "subpage.NO_PAGE": "{{streamerName}} nemá stránku pouze pro subdodávky."
}
