{
  "app.NEED_HELP": "Brauche Hilfe? Schauen Sie sich unsere an",
  "attributes.ACTIVE_QUESTION": "Aktiv?",
  "attributes.ATTRIBUTE": "Attribut",
  "attributes.NO_ATTRIBUTES_WARNING": "Sie haben noch keine Attribute eingerichtet",
  "attributes.NONE_FOUND": "Keine Attribute gefunden.",
  "attributes.SHOW_IN_TABLE": "In Songlist-Zeilen anzeigen?",
  "commands.COOLDOWN": "Abkühlen",
  "commands.CREATE_NEW": "Neuen Befehl erstellen?",
  "commands.CUSTOM": "Brauch",
  "commands.GENERAL": "Allgemeines",
  "commands.NONE_FOUND": "Keine Befehle gefunden.",
  "history.NONE_FOUND_SINGLE": "Dieses Lied wurde nicht gespielt.",
  "history.NONE_FOUND": "Keine gespielten Songs gefunden.",
  "login.PROVIDER_INTRO": "Derzeit können Sie sich bei folgenden Anbietern anmelden:",
  "nav.PREFERENCES": "Einstellungen",
  "nav.SIGN_IN": "Einloggen",
  "nav.SIGN_OUT": "Ausloggen",
  "nav.VIEW_PAGE": "Meine Seite anzeigen",
  "profile.SETTINGS_LINK": "Meine Streamer-Einstellungen",
  "queue.AVAILABLE_SLOTS": "Verfügbare Plätze",
  "queue.link.WARNING_INFO": "Die folgende URL führt Sie von dieser Site weg.",
  "queue.link.WARNING": "Warnung",
  "queue.NONE_FOUND": "Keine Songs in der Warteschlange gefunden.",
  "queue.NUM_IN_QUEUE": "Num in Queue",
  "queue.OVER_LIMIT": "Über dem Limit",
  "queue.PLAYED": "Gespielt",
  "queue.table.AMOUNT": "Menge",
  "queue.table.PLAYED": "Song wie gespielt einstellen",
  "queue.table.POSITION": "Position",
  "queue.table.REMOVE": "Aus der Warteschlange entfernen",
  "queue.table.REQUESTED_BY": "Angefordert von",
  "queue.toolbar.ADD": "Song zur Warteschlange hinzufügen",
  "queue.toolbar.EDIT": "In der Warteschlange befindliches Lied bearbeiten",
  "queue.toolbar.OFFLINE": "Song in die Offline-Warteschlange verschieben",
  "queue.toolbar.TOP": "Song nach oben verschieben",
  "saved-queue.NONE_FOUND": "Keine gespeicherten Queue-Songs gefunden.",
  "SELECT_LANGUAGE": "Sprache auswählen",
  "settings.BOT_CONNECTED": "Bot mit Chat verbunden",
  "settings.command-message.commandBlocked": "SonglistBot kann keine Antwort auf den angegebenen Befehl senden",
  "settings.command-message.emptyQueue": "Die Warteschlange ist leer und es wurde angenommen, dass sich mindestens ein Titel in der Warteschlange befand",
  "settings.command-message.firstSong": "Das angegebene Lied befindet sich bereits an der Position 1 in der Warteschlange",
  "settings.command-message.followerOnly": "Der Nur-Follower-Modus ist aktiviert und der Benutzer folgt nicht",
  "settings.command-message.maxRequests": "Wenn die Warteschlange das Limit der hinzuzufügenden Titel erreicht hat",
  "settings.command-message.maxRequestsPerUser": "Der Benutzer hat die maximale Anzahl von Anforderungen erreicht",
  "settings.command-message.neverPlayed": "Das angegebene Lied wurde noch nie gespielt",
  "settings.command-message.noDuplicate": "Der angeforderte Titel ist bereits in der Warteschlange und die Option zum Zulassen von Duplikaten ist deaktiviert",
  "settings.command-message.noEvents": "Es wurden keine Veranstaltungen gefunden",
  "settings.command-message.noSongs": "Die Songliste hat keine aktiven Songs",
  "settings.command-message.noSongsInQueueUser": "Der Benutzer hat keine Songs in der Warteschlange oder in der Offline-Warteschlange",
  "settings.command-message.notPlayedToday": "Wenn ein Befehl annimmt, dass heute Songs gespielt wurden",
  "settings.command-message.onlySong": "Wenn ein Befehl annimmt, dass sich mehr als ein Lied in der Warteschlange befindet",
  "settings.command-message.recentlyPlayed": "Das angeforderte Lied wurde innerhalb der mit der Option &quot;Minuten zwischen Anforderungen&quot; festgelegten Zeit abgespielt",
  "settings.command-message.requestsNotActive": "Anforderungen sind derzeit deaktiviert",
  "settings.command-message.songNextPlay": "Markiert den Benutzer, dessen Lied als nächstes in der Warteschlange steht, um abgespielt zu werden",
  "settings.command-message.songNotFoundQueue": "Das angegebene Lied wurde nicht in der Warteschlange gefunden",
  "settings.command-message.songNotFoundSonglist": "Das angegebene Lied wurde nicht in der Songliste gefunden",
  "settings.command-message.subsOnly": "Der Nur-Unter-Modus ist aktiviert und der Benutzer ist nicht abonniert",
  "settings.command.BOT_MESSAGES": "Bot-Nachrichten",
  "settings.command.EDIT_BOT": "Bot-Nachricht bearbeiten",
  "settings.command.EDIT": "Befehl bearbeiten",
  "settings.command.ENABLED_Q": "Aktiviert?",
  "settings.command.MESSAGE_SENT": "Nachricht gesendet",
  "settings.command.MOD_ONLY_Q": "Nur Mod?",
  "settings.command.NEW": "Neuer Befehl",
  "settings.CONNECT": "Verbinden",
  "settings.CUSTOM_REQUEST_DIALOG": "Text, der im Song-Anforderungsdialog angezeigt werden soll",
  "settings.DISCONNECT": "Trennen",
  "settings.DONATION_PAGE_URL": "URL der Spendenseite",
  "settings.import.DUPLICATE": "Mindestens eine Zeile ist doppelt vorhanden",
  "settings.import.FILE_ERROR_MSG": "Es konnten keine Songs geladen werden. Vergewissern Sie sich, dass Ihre Datei korrekt formatiert ist, und versuchen Sie es erneut.",
  "settings.import.MISSING_COLUMN": "Fehlende Spalte",
  "settings.import.ONE_ROW_MISSING_COLUMN": "In mindestens einer Zeile fehlt eine Spalte",
  "settings.import.REVIEW_SONGS": "Überprüfen Sie die Songs",
  "settings.import.SELECT_FILE": "Wählen Sie eine Datei aus",
  "settings.import.UPLOAD_ERROR_MSG": "Beim Hochladen dieser Songs ist ein Fehler aufgetreten. Bitte überprüfen Sie, ob Duplikate vorhanden sind.",
  "settings.import.UPLOAD_INFO": "Die folgenden Songs werden hochgeladen, wo die endgültigen Überprüfungen stattfinden",
  "settings.import.UPLOAD": "Hochladen",
  "settings.NUM_NEW_DAYS_INFO": "Anzahl der Tage, an denen kürzlich erstellte Songs als &quot;Neu&quot; angezeigt werden",
  "settings.NUM_NEW_DAYS": "Anzahl der &quot;neuen&quot; Tage",
  "settings.OPEN_TO_SEE": "Öffnen Sie sich, um zu sehen",
  "settings.queue.CONCURRENT_REQ_LIMIT": "Limits für gleichzeitige Song-Anfragen (nur in der Warteschlange)",
  "settings.queue.INSERT_METHOD": "Queue Insert Method",
  "settings.queue.MAX_REQ_PER_SESSION_INFO": "Wenn Sie den Wert auf 0 setzen, wird der Zähler über der Warteschlange deaktiviert",
  "settings.queue.MAX_REQ_PER_SESSION": "Max. Anfragen pro Sitzung",
  "settings.queue.MIN_REQ_AMOUNT": "Mindestanforderungsbetrag",
  "settings.queue.REQ_LIMITED_TO": "Anfragen begrenzt auf",
  "settings.queue.REQUEST_STATUS": "Anforderungsstatus",
  "settings.queue.SESSION_LENGTH_INFO": "Stellen Sie die maximale Länge Ihres Streams ein. arbeitet mit dem Zähler über der Warteschlange",
  "settings.queue.SESSION_LENGTH": "Sitzungsdauer",
  "settings.queue.TOTAL_REQ_LIMITS": "Gesamtanzahl der Song-Anforderungslimits",
  "settings.REQUEST_TEXT": "Text anfordern",
  "settings.RESET": "Zurücksetzen",
  "settings.SHOW_DONATION_LINK_INFO": "Spendenlink im Songanfrage-Dialog anzeigen",
  "settings.SHOW_DONATION_LINK": "Spendenlink anzeigen",
  "settings.THEME": "Thema",
  "settings.URL_EXAMPLE": "z.B. streamelements.com/tip/my-stream-name",
  "shared.ADD": "Hinzufügen",
  "shared.ALL": "Alles",
  "shared.ARTIST": "Künstler",
  "shared.BACK": "Zurück",
  "shared.BY": "durch",
  "shared.CANCEL": "Stornieren",
  "shared.CONTINUE": "Fortsetzen",
  "shared.DAY_SHORT": "1d",
  "shared.DAY": "Tag",
  "shared.DELETE": "Löschen",
  "shared.DISABLED": "Deaktiviert",
  "shared.EDIT": "Bearbeiten",
  "shared.ENABLED": "aktiviert",
  "shared.FOLLOWER": "Anhänger",
  "shared.HOURS": "Std",
  "shared.MONTH_SHORT": "30d",
  "shared.MONTH": "Monat",
  "shared.NO": "Nein",
  "shared.NONE_FOUND": "Keine gefunden",
  "shared.NONE": "Keiner",
  "shared.NOTE": "Note",
  "shared.OF": "von",
  "shared.PREVIEW": "Vorschau",
  "shared.SAVE": "sparen",
  "shared.STREAM_SHORT": "&lt;1d",
  "shared.STREAM": "Strom",
  "shared.STREAMER": "Streamer",
  "shared.SUB": "Sub",
  "shared.TIER_1": "Tier 1",
  "shared.TIER_2": "Rang 2",
  "shared.TIER_3": "Stufe 3",
  "shared.TITLE": "Titel",
  "shared.USER": "Nutzer",
  "shared.WEEK_SHORT": "7d",
  "shared.WEEK": "Woche",
  "shared.YES": "Ja",
  "songs.ADD_NEW": "Füge ein neues Lied hinzu",
  "songs.ADD_ONE": "Klicken Sie hier, um eine hinzuzufügen",
  "songs.CHORDS": "Akkorde",
  "songs.CREATE_ANOTHER": "Weitere erstellen und hinzufügen",
  "songs.CREATE": "Erstellen",
  "songs.EDIT_SONGS": "Bearbeiten Sie Songs",
  "songs.IN_QUEUE": "(in der Warteschlange)",
  "songs.LAST_PLAYED": "Zuletzt gespielt",
  "songs.LYRICS": "Text",
  "songs.multi-edit.FORCE_UPDATE": "Update erzwingen?",
  "songs.multi-edit.WARNING": "Hinweis: Wenn ein Feld eine Eingabe enthält oder Attribute ausgewählt sind, werden diese Felder für jeden Song überschrieben. Wenn &quot;Aktualisierung erzwingen&quot; umgeschaltet ist, werden alle Felder, unabhängig von der Eingabe, überschrieben.",
  "songs.NEVER_PLAYED": "noch nie",
  "songs.NOT_FOUND": "Keine Songs gefunden.",
  "songs.REQUEST_SHORT": "Anf",
  "songs.request.FOLLOW_ONLY": "Anfragen werden nur an Follower gerichtet",
  "songs.request.INFO": "Kopieren Sie das Folgende, um es in die Spendenseite einzufügen, oder fügen Sie es in den Chat ein",
  "songs.request.LOGGED_IN_ONLY": "Songanforderungen sind derzeit nur für angemeldete Benutzer festgelegt",
  "songs.request.PRIORITY_INFO": "Klicken Sie auf die Anforderungsschaltfläche. Um eine Prioritätsanfrage zu erhalten, kopieren Sie das Folgende, um es in die Spendenseite einzufügen, oder fügen Sie es Ihrem Jubel bei",
  "songs.request.REQUEST": "Song-Anfrage",
  "songs.request.SUB_ONLY": "Anfragen werden nur für Abonnenten gestellt",
  "songs.REQUEST": "Anfordern",
  "songs.RETURN_FIRST": "Zurück zur ersten Seite",
  "songs.SEARCH": "Suche",
  "songs.SHOW_INACTIVE": "Show Inactive",
  "songs.SONG": "Lied",
  "songs.TABS": "Tabs",
  "songs.TIMES_PLAYED": "Mal gespielt",
  "streamer.nav_EDIT": "Bearbeiten",
  "streamer.nav.ATTRIBUTES": "Song-Attribute",
  "streamer.nav.BASIC": "Basic",
  "streamer.nav.BOT_COMMANDS": "Bot Befehle",
  "streamer.nav.INTEGRATIONS": "Integrationen",
  "streamer.nav.EDIT_MODE": "Bearbeitungsmodus",
  "streamer.nav.EDIT_SONG": "Song bearbeiten",
  "streamer.nav.HISTORY": "Geschichte",
  "streamer.nav.OVERLAYS": "Überlagerungen",
  "streamer.nav.QUEUE": "Warteschlange",
  "streamer.nav.SAVED_QUEUE": "Gespeicherte Warteschlange",
  "streamer.nav.SETTINGS": "die Einstellungen",
  "streamer.nav.SONG_IMPORT": "Song-Import",
  "streamer.nav.SONGS": "Lieder",
  "streamer.nav.SUB_PAGE": "Unterseite",
  "subpage.NEED_SUB": "Sie müssen den Kanal von {{streamerName}} abonniert haben, um diese Seite anzuzeigen.",
  "subpage.NO_PAGE": "{{streamerName}} hat keine Nur-Unter-Seite."
}
