{
  "app.NEED_HELP": "助けが必要？私たちをチェックしてください",
  "attributes.ACTIVE_QUESTION": "アクティブですか？",
  "attributes.ATTRIBUTE": "属性",
  "attributes.NO_ATTRIBUTES_WARNING": "まだ属性を設定していません",
  "attributes.NONE_FOUND": "属性が見つかりません。",
  "attributes.SHOW_IN_TABLE": "ソングリストの行に表示しますか？",
  "commands.COOLDOWN": "クールダウン",
  "commands.CREATE_NEW": "新しいコマンドを作成しますか？",
  "commands.CUSTOM": "カスタム",
  "commands.GENERAL": "全般",
  "commands.NONE_FOUND": "コマンドが見つかりません。",
  "history.NONE_FOUND_SINGLE": "この曲は再生されていません。",
  "history.NONE_FOUND": "再生した曲は見つかりませんでした。",
  "login.PROVIDER_INTRO": "現在、次のプロバイダーでサインインできます。",
  "nav.PREFERENCES": "プリファレンス",
  "nav.SIGN_IN": "サインイン",
  "nav.SIGN_OUT": "サインアウト",
  "nav.VIEW_PAGE": "マイページを見る",
  "profile.SETTINGS_LINK": "私のストリーマー設定",
  "queue.AVAILABLE_SLOTS": "利用可能なスロット",
  "queue.link.WARNING_INFO": "次のURLはこのサイトからあなたを連れ去っています。",
  "queue.link.WARNING": "警告",
  "queue.NONE_FOUND": "キューに入っている曲は見つかりませんでした。",
  "queue.NUM_IN_QUEUE": "キュー内の数",
  "queue.OVER_LIMIT": "限度を超えて",
  "queue.PLAYED": "プレイ済み",
  "queue.table.AMOUNT": "量",
  "queue.table.PLAYED": "曲を再生済みに設定",
  "queue.table.POSITION": "ポジション",
  "queue.table.REMOVE": "キューから削除",
  "queue.table.REQUESTED_BY": "に要求された",
  "queue.toolbar.ADD": "曲をキューに追加",
  "queue.toolbar.EDIT": "キューに入っている曲を編集する",
  "queue.toolbar.OFFLINE": "曲をオフラインキューに移動する",
  "queue.toolbar.TOP": "曲を先頭に移動",
  "saved-queue.NONE_FOUND": "保存されたキューの曲は見つかりませんでした。",
  "SELECT_LANGUAGE": "言語を選択する",
  "settings.BOT_CONNECTED": "チャットに接続されたボット",
  "settings.command-message.commandBlocked": "SonglistBotは、指定されたコマンドに応答を送信できません",
  "settings.command-message.emptyQueue": "キューは空であり、コマンドはキューに少なくとも1つの曲があると想定しました",
  "settings.command-message.firstSong": "指定された曲は既にキューのナンバー1の位置にあります",
  "settings.command-message.followerOnly": "フォロワー専用モードがオンになっていて、ユーザーがフォローしていません",
  "settings.command-message.maxRequests": "キューが追加する曲の制限に達したとき",
  "settings.command-message.maxRequestsPerUser": "ユーザーがリクエストの最大数に達しました",
  "settings.command-message.neverPlayed": "指定された曲はこれまで再生されたことがない",
  "settings.command-message.noDuplicate": "要求された曲は既にキューにあり、複製を許可するオプションがオフになっています",
  "settings.command-message.noEvents": "イベントは見つかりませんでした",
  "settings.command-message.noSongs": "ソングリストにはアクティブな曲がありません",
  "settings.command-message.noSongsInQueueUser": "ユーザーはキューまたはオフラインキューに曲がありません",
  "settings.command-message.notPlayedToday": "コマンドが今日再生された歌があると仮定するとき",
  "settings.command-message.onlySong": "コマンドがキューに複数の歌があると仮定する場合",
  "settings.command-message.recentlyPlayed": "リクエストされた曲は、「リクエスト間の間隔」オプションで指定された時間内に再生されました",
  "settings.command-message.requestsNotActive": "リクエストは現在オフになっています",
  "settings.command-message.songNextPlay": "再生するキューの次の曲のユーザーにタグを付けます",
  "settings.command-message.songNotFoundQueue": "指定された曲はキューに見つかりませんでした",
  "settings.command-message.songNotFoundSonglist": "指定された曲が曲リストに見つかりませんでした",
  "settings.command-message.subsOnly": "サブオンリーモードがオンになっており、ユーザーはサブスクライブされていません",
  "settings.command.BOT_MESSAGES": "ボットメッセージ",
  "settings.command.EDIT_BOT": "ボットメッセージの編集",
  "settings.command.EDIT": "編集コマンド",
  "settings.command.ENABLED_Q": "有効にしましたか？",
  "settings.command.MESSAGE_SENT": "送信したメッセージ",
  "settings.command.MOD_ONLY_Q": "Modのみ？",
  "settings.command.NEW": "新しいコマンド",
  "settings.CONNECT": "つなぐ",
  "settings.CUSTOM_REQUEST_DIALOG": "曲のリクエストダイアログに表示するテキスト",
  "settings.DISCONNECT": "切断する",
  "settings.DONATION_PAGE_URL": "寄付ページのURL",
  "settings.import.DUPLICATE": "少なくとも1行が重複しています",
  "settings.import.FILE_ERROR_MSG": "曲を読み込めませんでした。ファイルが適切にフォーマットされていることを確認して、もう一度お試しください。",
  "settings.import.MISSING_COLUMN": "列がありません",
  "settings.import.ONE_ROW_MISSING_COLUMN": "少なくとも1つの行に列がありません",
  "settings.import.REVIEW_SONGS": "曲を確認する",
  "settings.import.SELECT_FILE": "ファイルを選択してください",
  "settings.import.UPLOAD_ERROR_MSG": "これらの曲のアップロード中にエラーが発生しました。重複がないことを確認してください。",
  "settings.import.UPLOAD_INFO": "最終チェックが行われる場所では、次の曲がアップロードされます",
  "settings.import.UPLOAD": "アップロードする",
  "settings.NUM_NEW_DAYS_INFO": "最近作成された曲が「新規」として表示される日数",
  "settings.NUM_NEW_DAYS": "「新しい」日数",
  "settings.OPEN_TO_SEE": "開いて見る",
  "settings.queue.CONCURRENT_REQ_LIMIT": "同時曲リクエスト制限（キューのみ）",
  "settings.queue.INSERT_METHOD": "キュー挿入メソッド",
  "settings.queue.MAX_REQ_PER_SESSION_INFO": "0に設定すると、キューの上のカウンターが無効になります",
  "settings.queue.MAX_REQ_PER_SESSION": "セッションあたりの最大リクエスト",
  "settings.queue.MIN_REQ_AMOUNT": "最小リクエスト量",
  "settings.queue.REQ_LIMITED_TO": "限定リクエスト",
  "settings.queue.REQUEST_STATUS": "リクエストステータス",
  "settings.queue.SESSION_LENGTH_INFO": "ストリームの最大長に設定します。キューの上のカウンターで動作します",
  "settings.queue.SESSION_LENGTH": "セッションの長さ",
  "settings.queue.TOTAL_REQ_LIMITS": "総曲リクエスト制限",
  "settings.REQUEST_TEXT": "リクエストテキスト",
  "settings.RESET": "リセットする",
  "settings.SHOW_DONATION_LINK_INFO": "歌のリクエストダイアログに寄付リンクを表示する",
  "settings.SHOW_DONATION_LINK": "寄付リンクを表示",
  "settings.THEME": "テーマ",
  "settings.URL_EXAMPLE": "例えば。 streamelements.com/tip/my-stream-name",
  "shared.ADD": "追加する",
  "shared.ALL": "すべて",
  "shared.ARTIST": "アーティスト",
  "shared.BACK": "バック",
  "shared.BY": "によって",
  "shared.CANCEL": "キャンセル",
  "shared.CONTINUE": "持続する",
  "shared.DAY_SHORT": "1d",
  "shared.DAY": "日",
  "shared.DELETE": "削除する",
  "shared.DISABLED": "無効",
  "shared.EDIT": "編集",
  "shared.ENABLED": "有効化",
  "shared.FOLLOWER": "フォロワー",
  "shared.HOURS": "営業時間",
  "shared.MONTH_SHORT": "30日",
  "shared.MONTH": "月",
  "shared.NO": "いや",
  "shared.NONE_FOUND": "見つかりません",
  "shared.NONE": "無し",
  "shared.NOTE": "Note",
  "shared.OF": "の",
  "shared.PREVIEW": "プレビュー",
  "shared.SAVE": "保存する",
  "shared.STREAM_SHORT": "&lt;1d",
  "shared.STREAM": "ストリーム",
  "shared.STREAMER": "ストリーマー",
  "shared.SUB": "サブ",
  "shared.TIER_1": "ティア1",
  "shared.TIER_2": "ティア2",
  "shared.TIER_3": "ティア3",
  "shared.TITLE": "タイトル",
  "shared.USER": "ユーザー",
  "shared.WEEK_SHORT": "7d",
  "shared.WEEK": "週間",
  "shared.YES": "はい",
  "songs.ADD_NEW": "新しい曲を追加する",
  "songs.ADD_ONE": "ここをクリックして追加してください",
  "songs.CHORDS": "和音",
  "songs.CREATE_ANOTHER": "別のものを作成して追加する",
  "songs.CREATE": "作成する",
  "songs.EDIT_SONGS": "曲を編集する",
  "songs.IN_QUEUE": "（順番待ち）",
  "songs.LAST_PLAYED": "最後にプレイした",
  "songs.LYRICS": "歌詞",
  "songs.multi-edit.FORCE_UPDATE": "アップデートさせる？",
  "songs.multi-edit.WARNING": "注：フィールドに入力がある場合、または属性が選択されている場合、曲ごとにそれらのフィールドが上書きされます。 「強制更新」を切り替えると、入力の有無に関係なくすべてのフィールドが上書きされます。",
  "songs.NEVER_PLAYED": "決して",
  "songs.NOT_FOUND": "曲が見つかりません。",
  "songs.REQUEST_SHORT": "必須",
  "songs.request.FOLLOW_ONLY": "リクエストはフォロワーのみに設定されます",
  "songs.request.INFO": "以下をコピーして寄付ページに貼り付けるか、チャットの一部に含める",
  "songs.request.LOGGED_IN_ONLY": "現在、曲のリクエストはログインしているユーザーのみに設定されています",
  "songs.request.PRIORITY_INFO": "要求ボタンをクリックします。優先リクエストを受け取るには、以下をコピーして寄付ページに貼り付けるか、応援に含めてください",
  "songs.request.REQUEST": "歌のリクエスト",
  "songs.request.SUB_ONLY": "リクエストはサブスクライバーのみに設定されます",
  "songs.REQUEST": "要求",
  "songs.RETURN_FIRST": "最初のページに戻る",
  "songs.SEARCH": "サーチ",
  "songs.SHOW_INACTIVE": "Show Inactive",
  "songs.SONG": "歌",
  "songs.TABS": "タブ",
  "songs.TIMES_PLAYED": "プレイ回数",
  "streamer.nav_EDIT": "編集",
  "streamer.nav.ATTRIBUTES": "曲の属性",
  "streamer.nav.BASIC": "ベーシック",
  "streamer.nav.BOT_COMMANDS": "ボットコマンド",
  "streamer.nav.INTEGRATIONS": "統合",
  "streamer.nav.EDIT_MODE": "編集モード",
  "streamer.nav.EDIT_SONG": "曲を編集",
  "streamer.nav.HISTORY": "歴史",
  "streamer.nav.OVERLAYS": "オーバーレイ",
  "streamer.nav.QUEUE": "キュー",
  "streamer.nav.SAVED_QUEUE": "保存されたキュー",
  "streamer.nav.SETTINGS": "設定",
  "streamer.nav.SONG_IMPORT": "曲のインポート",
  "streamer.nav.SONGS": "曲",
  "streamer.nav.SUB_PAGE": "サブページ",
  "subpage.NEED_SUB": "このページを表示するには、{{streamerName}}のチャンネルに登録する必要があります。",
  "subpage.NO_PAGE": "{{streamerName}}には、サブのみのページはありません。"
}
